Citroen.png,,,,,,,
C3,C3,C3 Aircross,C3 Picasso ,,,,
C4,C4,C4 Aircross,C4 Cactus,C4 Picasso ,C4 SpaceTourer,Grand C4 Picasso ,Grand C4 SpaceTourer
2CV,,,,,,,
AX,,,,,,,
Acadiane,,,,,,,
Axel,,,,,,,
BX,,,,,,,
Berlingo,,,,,,,
C-Crosser,,,,,,,
C-Elysee,,,,,,,
C-Zero,,,,,,,
C1,,,,,,,
C15,,,,,,,
C2,,,,,,,
C25,,,,,,,
C35,,,,,,,
C5,,,,,,,
C5 Aircross,,,,,,,
C6,,,,,,,
C8,,,,,,,
CX,,,,,,,
DS,,,,,,,
DS,,,,,,,
DS3,,,,,,,
DS4,,,,,,,
DS5,,,,,,,
Jumpu,,,,,,,
Spacetourer,,,,,,,
