Volkswagen.png,,,,,,,,
Golf,Cross Golf,Golf,Golf Cabriolet,Golf GTI,Golf Plus,Golf R,Golf Sportsvan,Golf Variant
Passat,Passat,Passat Alltrack,Passat CC,Passat Variant,,,,
Polo,Polo,Polo Cross,Polo GTI,Polo Plus,Polo R WRC,Polo Sedan,Polo Variant,
Golf,,,,,,,,
|++,,,,,,,,
Cross Golf,,,,,,,,
Golf,,,,,,,,
Golf Cabriolet,,,,,,,,
Golf GTI,,,,,,,,
Golf Plus,,,,,,,,
Golf R,,,,,,,,
Golf Sportsvan,,,,,,,,
Golf Variant,,,,,,,,
|--,,,,,,,,
Passat,,,,,,,,
|++,,,,,,,,
Passat,,,,,,,,
Passat Alltrack,,,,,,,,
Passat CC,,,,,,,,
Passat Variant,,,,,,,,
|--,,,,,,,,
Polo,,,,,,,,
|++,,,,,,,,
Polo,,,,,,,,
Polo Cross,,,,,,,,
Polo GTI,,,,,,,,
Polo Plus,,,,,,,,
Polo R WRC,,,,,,,,
Polo Sedan,,,,,,,,
Polo Variant,,,,,,,,
|--,,,,,,,,
Caravelle,,,,,,,,
Amarok,,,,,,,,
Arteon,,,,,,,,
Cady,,,,,,,,
Jetta,,,,,,,,
Others,,,,,,,,
Phaeton,,,,,,,,
Scirocco,,,,,,,,
Sharan,,,,,,,,
T-Cross,,,,,,,,
T-Roc,,,,,,,,
Tiguan,,,,,,,,
Touareg,,,,,,,,
Touran,,,,,,,,
